<?xml version="1.0" encoding="UTF-8"?>
<svg width="20px" height="23px" viewBox="0 0 20 23" version="1.1" xmlns="http://www.w3.org/2000/svg" xmlns:xlink="http://www.w3.org/1999/xlink">
    <!-- Generator: sketchtool 52.6 (67491) - http://www.bohemiancoding.com/sketch -->
    <title>FB0330D6-803D-44AD-8EF5-0AA04A14DCE2</title>
    <desc>Created with sketchtool.</desc>
    <g id="Pulse" stroke="none" stroke-width="1" fill="none" fill-rule="evenodd">
        <g id="1.3-Pulse/Inside-Hashtag" transform="translate(-43.000000, -454.000000)">
            <g id="Sidebar/Pulse" transform="translate(0.000000, 72.000000)">
                <g id="Group-2">
                    <g id="Group-7">
                        <g id="Group-47" transform="translate(0.000000, 360.000000)">
                            <g id="Fav-Icon" transform="translate(35.000000, 16.000000)">
                                <rect id="Rectangle" fill="#FFFFFF" opacity="0" x="0" y="0" width="36" height="34"></rect>
                                <g id="Icon" transform="translate(8.000000, 6.000000)">
                                    <path d="M2,2.98 L2,21.1373371 C2,21.8015095 2.46666667,22.438008 3.16666667,22.7700942 C3.93333333,23.1021804 4.8,23.0745065 5.5,22.6870726 L11,18.6986088 L16.5,22.6870726 C17.2666667,23.0745065 18.0333333,23.1021804 18.8333333,22.7700942 C19.5666667,22.438008 20,21.8015095 20,21.1373371 L20,2.98 C20,1.8864762 19.1135238,1 18.02,1 L3.98,1 C2.8864762,1 2,1.8864762 2,2.98 Z" id="Path-Copy" fill="#507BFC" opacity="0.295151"></path>
                                    <path d="M0,1.98 L0,20.1373371 C0,20.8015095 0.466666667,21.438008 1.16666667,21.7700942 C1.93333333,22.1021804 2.8,22.0745065 3.5,21.6870726 L9,17.6986088 L14.5,21.6870726 C15.2666667,22.0745065 16.0333333,22.1021804 16.8333333,21.7700942 C17.5666667,21.438008 18,20.8015095 18,20.1373371 L18,1.98 C18,0.886476195 17.1135238,3.26277971e-16 16.02,-4.4408921e-16 L1.98,2.22044605e-16 C0.886476195,4.22921669e-16 -3.55962648e-16,0.886476195 -2.22044605e-16,1.98 Z" id="Path-Copy" fill="#507BFC"></path>
                                    <path d="M4,16 L8.37530495,12.499756 C8.7405236,12.2075811 9.2594764,12.2075811 9.62469505,12.499756 L14,16" id="Path-2" stroke="#C6D3FA" stroke-width="1.5" stroke-linecap="round"></path>
                                </g>
                            </g>
                        </g>
                    </g>
                </g>
            </g>
        </g>
    </g>
</svg>