<?xml version="1.0" encoding="UTF-8"?>
<svg width="18px" height="24px" viewBox="0 0 18 24" version="1.1" xmlns="http://www.w3.org/2000/svg" xmlns:xlink="http://www.w3.org/1999/xlink">
    <!-- Generator: sketchtool 52.6 (67491) - http://www.bohemiancoding.com/sketch -->
    <title>77B26C3C-948E-4D26-A059-DA9BBF4302AA</title>
    <desc>Created with sketchtool.</desc>
    <g id="Page-1" stroke="none" stroke-width="1" fill="none" fill-rule="evenodd">
        <g id="Learn/Course-ON/PPT" transform="translate(-100.000000, -429.000000)" fill="#AAAAAA">
            <g id="Group-7" transform="translate(100.000000, 429.000000)">
                <g id="icon/bookmark">
                    <path d="M0,1.76418 L0,21.9680041 C0,22.6925558 0.466666667,23.3869178 1.16666667,23.7491937 C1.93333333,24.1114695 2.8,24.0812798 3.5,23.6586247 L9,19.3075732 L14.5,23.6586247 C15.2666667,24.0812798 16.0333333,24.1114695 16.8333333,23.7491937 C17.5666667,23.3869178 18,22.6925558 18,21.9680041 L18,1.76418 C18,0.78985029 17.2101497,-6.45870472e-16 16.23582,-1.33226763e-15 L1.76418,-2.22044605e-16 C0.78985029,-4.30631408e-17 -5.63410186e-16,0.78985029 -4.4408921e-16,1.76418 Z" id="Path-Copy"></path>
                </g>
            </g>
        </g>
    </g>
</svg>