<?xml version="1.0" encoding="UTF-8"?>
<svg width="15px" height="20px" viewBox="0 0 15 20" version="1.1" xmlns="http://www.w3.org/2000/svg" xmlns:xlink="http://www.w3.org/1999/xlink">
    <!-- Generator: sketchtool 52.6 (67491) - http://www.bohemiancoding.com/sketch -->
    <title>F9A4C996-0474-45E4-AE19-49E0F35DF5E1</title>
    <desc>Created with sketchtool.</desc>
    <g id="Pulse" stroke="none" stroke-width="1" fill="none" fill-rule="evenodd">
        <g id="1.1-Pulse/Main" transform="translate(-929.000000, -418.000000)" fill="#AAAAAA">
            <g id="Activities/Audio" transform="translate(146.000000, 388.000000)">
                <g id="Top" transform="translate(20.000000, 13.000000)">
                    <g id="Group" transform="translate(705.000000, 17.000000)">
                        <path d="M58,1.76418 L58,18.3066701 C58,18.9104632 58.3888889,19.4890982 58.9722222,19.7909947 C59.6111111,20.0928912 60.3333333,20.0677332 60.9166667,19.7155206 L65.5,16.0896443 L70.0833333,19.7155206 C70.7222222,20.0677332 71.3611111,20.0928912 72.0277778,19.7909947 C72.6388889,19.4890982 73,18.9104632 73,18.3066701 L73,1.76418 C73,0.78985029 72.2101497,-6.45870472e-16 71.23582,-1.33226763e-15 L59.76418,0 C58.7898503,1.78981464e-16 58,0.78985029 58,1.76418 Z" id="Path-Copy"></path>
                    </g>
                </g>
            </g>
        </g>
    </g>
</svg>