<?xml version="1.0" encoding="UTF-8"?>
<svg width="28px" height="28px" viewBox="0 0 28 28" version="1.1" xmlns="http://www.w3.org/2000/svg" xmlns:xlink="http://www.w3.org/1999/xlink">
    <!-- Generator: sketchtool 52.6 (67491) - http://www.bohemiancoding.com/sketch -->
    <title>2F2F8E61-EE44-41C3-AD2A-65DA75120A23</title>
    <desc>Created with sketchtool.</desc>
    <defs>
        <rect id="path-1" x="0" y="0" width="28" height="28" rx="2.04"></rect>
    </defs>
    <g id="Pulse" stroke="none" stroke-width="1" fill="none" fill-rule="evenodd">
        <g id="1.3-Pulse/Inside-Hashtag" transform="translate(-39.000000, -180.000000)">
            <g id="Sidebar/Pulse" transform="translate(0.000000, 72.000000)">
                <g id="Group-2">
                    <g id="Group-12" transform="translate(35.000000, 105.000000)">
                        <rect id="Rectangle" fill="#FFFFFF" opacity="0" x="0" y="0" width="36" height="34"></rect>
                        <g id="Pulse-31" transform="translate(4.000000, 3.000000)">
                            <mask id="mask-2" fill="white">
                                <use xlink:href="#path-1"></use>
                            </mask>
                            <use id="Mask" fill="#507BFC" xlink:href="#path-1"></use>
                            <g mask="url(#mask-2)" fill="#FFFFFF" id="Path">
                                <g transform="translate(-1.000000, 6.000000)">
                                    <path d="M9.30908203,9.09465667 L11.9311523,3.50164104 L15.0219727,15.3750821 C15.1171875,15.7312853 15.4833984,15.9875016 15.9082031,16 C15.9155273,16 15.9228516,16 15.9375,16 C16.3549805,16 16.7211914,15.7625312 16.8383789,15.4188263 L19.7607422,6.70747011 L20.6762695,9.05091242 C20.8007812,9.37586975 21.159668,9.59459103 21.5698242,9.59459103 L29.0625,9.59459103 C29.5825195,9.59459103 30,9.2383878 30,8.79469606 C30,8.35100432 29.5825195,7.99480109 29.0625,7.99480109 L22.2363281,7.99480109 L20.5737305,3.73910986 C20.4418945,3.40790335 20.0683594,3.14543781 19.6655273,3.19543124 C19.2553711,3.20168042 18.8964844,3.43914924 18.7866211,3.77660494 L16.0473633,11.9442825 L13.1030273,0.627018478 C13.0151367,0.283313607 12.6708984,0.0333464273 12.2607422,0.00210052992 C11.8505859,-0.022896188 11.4697266,0.177077555 11.315918,0.502034888 L7.80029297,8.00105026 L0.9375,8.00105026 C0.417480469,8.00105026 0,8.3572535 0,8.80094524 C0,9.24463698 0.417480469,9.60084021 0.9375,9.60084021 L8.4375,9.60084021 C8.81835937,9.60084021 9.16259766,9.40086647 9.30908203,9.09465667 Z"></path>
                                </g>
                            </g>
                        </g>
                    </g>
                </g>
            </g>
        </g>
    </g>
</svg>