<?xml version="1.0" encoding="UTF-8"?>
<svg width="51px" height="50px" viewBox="0 0 51 50" version="1.1" xmlns="http://www.w3.org/2000/svg" xmlns:xlink="http://www.w3.org/1999/xlink">
    <!-- Generator: sketchtool 52.6 (67491) - http://www.bohemiancoding.com/sketch -->
    <title>9962B27D-56C5-4C48-B3BE-F8E1571600CB</title>
    <desc>Created with sketchtool.</desc>
    <defs>
        <circle id="path-1" cx="16.3269908" cy="16.3269908" r="15.627907"></circle>
        <filter x="-51.2%" y="-44.8%" width="202.4%" height="202.4%" filterUnits="objectBoundingBox" id="filter-2">
            <feOffset dx="0" dy="2" in="SourceAlpha" result="shadowOffsetOuter1"></feOffset>
            <feGaussianBlur stdDeviation="5" in="shadowOffsetOuter1" result="shadowBlurOuter1"></feGaussianBlur>
            <feColorMatrix values="0 0 0 0 0.31372549   0 0 0 0 0.482352941   0 0 0 0 0.988235294  0 0 0 0.5 0" type="matrix" in="shadowBlurOuter1"></feColorMatrix>
        </filter>
    </defs>
    <g id="Page-1" stroke="none" stroke-width="1" fill="none" fill-rule="evenodd">
        <g id="Learn/View-All/Calender-View" transform="translate(-910.000000, -470.000000)">
            <g id="Card/Mycourses/Mandatory/Newcourse" transform="translate(575.000000, 385.000000)">
                <g id="Group" transform="translate(344.000000, 92.000000)">
                    <g id="Oval" fill-rule="nonzero">
                        <use fill="black" fill-opacity="1" filter="url(#filter-2)" xlink:href="#path-1"></use>
                        <use fill="#507BFC" xlink:href="#path-1"></use>
                    </g>
                    <path d="M16.3717003,21.5813953 C19.2443897,21.5813953 21.5813953,19.164922 21.5813953,16.1926138 C21.5813953,14.8011304 21.0588026,13.4711356 20.1382433,12.4724205 C20.1382433,12.4724205 20.2722952,12.160102 20.4390745,11.7749181 C20.6045448,11.3897343 20.3662886,11.1188596 19.9062708,11.1687005 L17.2103099,11.4607035 C16.7500302,11.5105444 16.597651,11.8648485 16.8686347,12.2521994 L18.4610242,14.5207751 C18.7330552,14.9092094 19.0684467,14.9547164 19.2106149,14.6245201 L19.4685077,14.0266996 C19.882707,14.6616299 20.1146795,15.4127655 20.1146795,16.1926138 C20.1146795,18.3279192 18.4353658,20.0653096 16.3717003,20.0653096 C14.307773,20.0653096 12.6295065,18.3279192 12.6295065,16.1926138 C12.6295065,15.5205737 12.7981186,14.858285 13.1183245,14.2775296 C13.3186169,13.9145575 13.1960851,13.4510909 12.8452462,13.2436008 C12.4923128,13.0352982 12.045386,13.1620675 11.8448319,13.5261231 C11.3989524,14.3346842 11.1627907,15.2572834 11.1627907,16.1926138 C11.1627907,19.164922 13.4997963,21.5813953 16.3717003,21.5813953 Z" id="Fill-1" fill="#C6D3FA"></path>
                </g>
            </g>
        </g>
    </g>
</svg>